Becas
…
## The following objects are masked from 'package:stats':
## 
##     filter, lag

## The following objects are masked from 'package:base':
## 
##     intersect, setdiff, setequal, union

annex1 %>% 
  group_by(NIF, center) %>% 
  summarise(people = sum(predoc)) %>% 
  filter(people != 0) %>% 
  arrange(desc(people))

## # A tibble: 400 x 3
## # Groups:   NIF [108]
##    NIF       center                      people
##    <fct>     <fct>                        <dbl>
##  1 G82316753 CARLOS III                       6
##  2 Q5856414G PI I SUNYER                      6
##  3 G64045719 CATALUNYA                        5
##  4 G81972242 INVESTIGACIONES ONCOLOGICAS      5
##  5 G95229142 CIC BIOGUNE                      5
##  6 Q1818002F FACULTAD DE CIENCIAS             5
##  7 Q2818002D (ITQ)                            5
##  8 Q2818002D BIOLOGICAS (CIB)                 5
##  9 Q2818002D SEVERO OCHOA (CBM)               5
## 10 Q2818013A FACULTAD DE CIENCIAS             5
## # … with 390 more rows
…
